{
  "app": "npx ts-node bin/aardonyx-base-team.ts",
  "context": {
    "@aws-cdk/core:enableStackNameDuplicates": "true",
    "aws-cdk:enableDiffNoFail": "true",
    "@aws-cdk/core:stackRelativeExports": "true"
  }
}
